<svg width="31" height="19" viewBox="0 0 31 19" fill="none" xmlns="http://www.w3.org/2000/svg">
<path fill-rule="evenodd" clip-rule="evenodd" d="M21.5579 18.3928C26.5143 18.3928 30.5323 14.4226 30.5323 9.52512C30.5323 4.62765 26.5143 0.657471 21.5579 0.657471C19.3367 0.657471 17.3039 1.45483 15.7368 2.77567C14.1697 1.45488 12.137 0.65755 9.91585 0.65755C4.9594 0.65755 0.941406 4.62773 0.941406 9.5252C0.941406 14.4227 4.9594 18.3928 9.91585 18.3928C12.1371 18.3928 14.1698 17.5955 15.7369 16.2746C17.304 17.5954 19.3367 18.3928 21.5579 18.3928Z" fill="#ED0006"/>
<path fill-rule="evenodd" clip-rule="evenodd" d="M15.7373 16.2742C17.6668 14.6477 18.8903 12.2276 18.8903 9.52512C18.8903 6.82263 17.6668 4.40249 15.7373 2.776C17.3045 1.45496 19.3374 0.657471 21.5588 0.657471C26.5152 0.657471 30.5332 4.62765 30.5332 9.52512C30.5332 14.4226 26.5152 18.3928 21.5588 18.3928C19.3374 18.3928 17.3045 17.5953 15.7373 16.2742Z" fill="#F9A000"/>
<path fill-rule="evenodd" clip-rule="evenodd" d="M15.7368 16.2747C17.6665 14.6482 18.8901 12.2279 18.8901 9.52526C18.8901 6.82262 17.6665 4.40237 15.7368 2.77588C13.8071 4.40237 12.5835 6.82262 12.5835 9.52526C12.5835 12.2279 13.8071 14.6482 15.7368 16.2747Z" fill="#FF5E00"/>
</svg>
